Trabajo Decente y Crecimiento Económico
…
PIB_A <- PIB_Q %>% group_by(geo,anyo) %>% summarise(PIB = sum(PIB, na.rm = TRUE))

`summarise()` has grouped output by 'geo'. You can override using the `.groups`
argument.

PIB_A

# A tibble: 1,217 × 3
# Groups:   geo [41]
   geo    anyo          PIB
   <chr> <dbl>        <dbl>
 1 AT     1995 184402700000
 2 AT     1996 186785500000
 3 AT     1997 187903700000
 4 AT     1998 194921400000
 5 AT     1999 203570000000
 6 AT     2000 213710900000
 7 AT     2001 220457900000
 8 AT     2002 226844200000
 9 AT     2003 231971100000
10 AT     2004 241944800000
# ℹ 1,207 more rows

PPC_A <- PPC_Q %>% group_by(geo,anyo) %>% summarise(PPC = sum(PPC, na.rm = TRUE), PPC_real = sum(PPC_real, na.rm = TRUE))

`summarise()` has grouped output by 'geo'. You can override using the `.groups`
argument.

PPC_A

# A tibble: 1,074 × 4
# Groups:   geo [40]
   geo    anyo    PPC PPC_real
   <chr> <dbl>  <dbl>    <dbl>
 1 AT     1995 23214.   25275.
 2 AT     1996 23486.   25810.
 3 AT     1997 23591.   26341.
 4 AT     1998 24453.   27246.
 5 AT     1999 25502.   28145.
 6 AT     2000 26707.   29082.
 7 AT     2001 27485.   29364.
 8 AT     2002 28132.   29714.
 9 AT     2003 28637.   29860.
10 AT     2004 29714.   30466.
# ℹ 1,064 more rows
…
